Project 1: Exploratory Data Analysis
…
## [1] NA

health.data %>% group_by(Name, "Percentage population below poverty") %>% 
    summarize(LowCost = Cost < 7171.314) %>% filter(LowCost == 
    FALSE) %>% arrange(desc("Percentage population below poverty"))

## # A tibble: 26 x 3
## # Groups:   Name [26]
##    Name        `"Percentage population below poverty"` LowCost
##    <fct>       <chr>                                   <lgl>  
##  1 Alaska      Percentage population below poverty     FALSE  
##  2 Arkansas    Percentage population below poverty     FALSE  
##  3 Colorado    Percentage population below poverty     FALSE  
##  4 Connecticut Percentage population below poverty     FALSE  
##  5 Delaware    Percentage population below poverty     FALSE  
##  6 Florida     Percentage population below poverty     FALSE  
##  7 Georgia     Percentage population below poverty     FALSE  
##  8 Indiana     Percentage population below poverty     FALSE  
##  9 Louisiana   Percentage population below poverty     FALSE  
## 10 Maine       Percentage population below poverty     FALSE  
## # … with 16 more rows

health.data %>% group_by(Name, Percentage.population.below.poverty) %>% 
    summarize(LowCost = Cost < 7171.314) %>% filter(LowCost == 
    TRUE) %>% arrange(desc(Percentage.population.below.poverty))

## # A tibble: 25 x 3
## # Groups:   Name [25]
##    Name                 Percentage.population.below.poverty LowCost
##    <fct>                                              <dbl> <lgl>  
##  1 New Mexico                                          20.9 TRUE   
##  2 Kentucky                                            18.8 TRUE   
##  3 Alabama                                             18.4 TRUE   
##  4 District of Columbia                                17.9 TRUE   
##  5 Arizona                                             17.7 TRUE   
##  6 West Virginia                                       17.7 TRUE   
##  7 South Carolina                                      17.2 TRUE   
##  8 Michigan                                            16.3 TRUE   
##  9 California                                          15.8 TRUE   
## 10 Oregon                                              15.7 TRUE   
## # … with 15 more rows
…
